%YAML 1.1
%TAG !u! tag:unity3d.com,2011:
--- !u!1045 &1
EditorBuildSettings:
  m_ObjectHideFlags: 0
  serializedVersion: 2
  m_Scenes:
  - enabled: 1
    path: Assets/_Project/Scenes/MainMenu.unity
    guid: 758b746abf790c943aa566b9473ee30b
  - enabled: 1
    path: Assets/_Project/Scenes/Scene 0.unity
    guid: 2cda990e2423bbf4892e6590ba056729
  m_configObjects: {}
