%YAML 1.1
%TAG !u! tag:unity3d.com,2011:
--- !u!162 &1
EditorUserSettings:
  m_ObjectHideFlags: 0
  serializedVersion: 4
  m_ConfigSettings:
    RecentlyUsedScenePath-0:
      value: 22424703114646680e0b0227036c6c111b07142f1f2b233e2867083debf42d
      flags: 0
    RecentlyUsedScenePath-1:
      value: 22424703114646643d1c032815204b5f33190e233e272b35233d5217ebf32039ecf376cfe8283a2f2d42ce2f173b152cbd2e0c06f94b39081400f84137f0021602d1498b0fc61608d2
      flags: 0
    RecentlyUsedScenePath-2:
      value: 22424703114646643d1c032815204b5f261b1933293a6918283b1273c9ee3d3feaf376a4a70a36243c0eaf1d162a4e1bf7070644d20e07045f1bf30705e6
      flags: 0
    RecentlyUsedScenePath-3:
      value: 22424703114646643d1c032815204b5f25141d24293b691d2c20131ee7ee2176f7e93ffdfe
      flags: 0
    RecentlyUsedScenePath-4:
      value: 22424703114646643d1c032815204b5f25141d24293b69032e2c1336a2b07a2decee22f0
      flags: 0
    vcSharedLogLevel:
      value: 0d5e400f0650
      flags: 0
  m_VCAutomaticAdd: 1
  m_VCDebugCom: 0
  m_VCDebugCmd: 0
  m_VCDebugOut: 0
  m_SemanticMergeMode: 2
  m_VCShowFailedCheckout: 1
  m_VCOverwriteFailedCheckoutAssets: 1
  m_VCProjectOverlayIcons: 1
  m_VCHierarchyOverlayIcons: 1
  m_VCOtherOverlayIcons: 1
  m_VCAllowAsyncUpdate: 1
